Chan2020minn · BEAVARs.jl
…
model_type, set_strct, hyp_strct = makeSetup("Chan2020minn";n_burn=20,n_save=50,p=3)
Do not forget to add the settings we are not changing, in the above example n_burn and n_save.

Loading the data
The next and final step is to load our data. I am constantly amazed how hard it is to load data in programming languages made for scientific analysis. You know, where analysing data is the main thing that you do! This is not a tutorial on that, and you might need additional packages to import your own data (e.g. CSV, XLSX, and countless others). 
For this tutorial we will generate random data. 
Moreover, Vector Autoregressions are typically used for time-series, which are data where each value corresponds to a specific time point. This package uses a speicific type TimeArray (provided by the above installed TimeSeries) to deal with this. 
First generate 30 random observations from 3 variables and 30 random date values using the following command. Don't forget to check the docs for TimeArray like we did above with julia>? and help>TimeArray.

julia> data = TimeArray(DateTime(2020,1,1):Quarter(1):DateTime(2027,4,1),rand(30,3))
30×3 TimeArray{Float64, 2, DateTime, Matrix{Float64}} 2020-01-01T00:00:00 to 2027-04-01T00:00:00
┌─────────────────────┬────────────┬───────────┬──────────┐
│                     │ A          │ B         │ C        │
├─────────────────────┼────────────┼───────────┼──────────┤
│ 2020-01-01T00:00:00 │ 0.00817292 │  0.939333 │ 0.372302 │
│ 2020-04-01T00:00:00 │   0.420362 │ 0.0207827 │ 0.134192 │
│          ⋮          │     ⋮      │     ⋮     │    ⋮     │
│ 2027-04-01T00:00:00 │   0.942019 │  0.414029 │ 0.208983 │
└─────────────────────┴────────────┴───────────┴──────────┘
                                            27 rows omitted
…
